…
process_text <- function(book_title, books){
  book_text_raw <- tibble(books[[book_title]]) %>%
    select(text = 1) %>%
    mutate(chapter = row_number(),
           book = book_title) %>%
  unnest_tokens(word, text)
}

all_books_raw <- bind_rows(lapply(names(books), process_text, books)) %>%
  mutate(book = factor(book, levels = unique(book)))
```

This gives us one word per row with identifiers for the book and chapter.

    ## # A tibble: 1,089,386 x 3
    ##    chapter book             word   
    ##      <int> <fct>            <chr>  
    ##  1       1 Sorcerer's Stone the    
    ##  2       1 Sorcerer's Stone boy    
    ##  3       1 Sorcerer's Stone who    
    ##  4       1 Sorcerer's Stone lived  
    ##  5       1 Sorcerer's Stone mr     
    ##  6       1 Sorcerer's Stone and    
    ##  7       1 Sorcerer's Stone mrs    
    ##  8       1 Sorcerer's Stone dursley
    ##  9       1 Sorcerer's Stone of     
    ## 10       1 Sorcerer's Stone number 
    ## # ... with 1,089,376 more rows
…
